testbench/vcd/main.vcd
$date
	Mon May 24 15:34:03 2021
$end
$version
	Icarus Verilog
$end
$timescale
	100ps
$end
$scope module tb_Main $end
$var wire 1 ! RAM_WRITE_ENABLE $end
$var wire 64 " RAM_WRITE_DATA [63:0] $end
$var wire 64 # RAM_READ_DATA [63:0] $end
$var wire 10 $ RAM_ADDR [9:0] $end
$var wire 10 % INSTRUCTION_ADDR [9:0] $end
$var wire 32 & INSTRUCTION [31:0] $end
$var reg 1 ' CLK $end
$scope module cpu $end
$var wire 1 ( B_beq $end
$var wire 1 ) B_bge $end
$var wire 1 * B_bgeu $end
$var wire 1 + B_blt $end
$var wire 1 , B_bltu $end
$var wire 1 - B_bne $end
$var wire 1 ' CLK $end
$var wire 1 . CONTROL_HAZARD_STALL $end
$var wire 1 / DATA_DEPENDENCY_HAZARD_R1 $end
$var wire 1 0 DATA_DEPENDENCY_HAZARD_R1_WRITEBACK $end
$var wire 1 1 DATA_DEPENDENCY_HAZARD_R2 $end
$var wire 1 2 DATA_DEPENDENCY_HAZARD_R2_WRITEBACK $end
$var wire 1 3 I_TYPE $end
$var wire 1 4 I_addi $end
$var wire 1 5 I_addiw $end
$var wire 1 6 I_andi $end
$var wire 1 7 I_jalr $end
$var wire 1 8 I_lb $end
$var wire 1 9 I_ld $end
$var wire 1 : I_lh $end
$var wire 1 ; I_lw $end
$var wire 1 < I_ori $end
$var wire 1 = I_slli $end
$var wire 1 > I_slliw $end
$var wire 1 ? I_slti $end
$var wire 1 @ I_sltiu $end
$var wire 1 A I_srai $end
$var wire 1 B I_sraiw $end
$var wire 1 C I_srli $end
$var wire 1 D I_srliw $end
$var wire 1 E I_xori $end
$var wire 1 F LOAD_STALL $end
$var wire 1 G PC_ALU_SEL $end
$var wire 64 H R1_DATA_UNSIGNED [63:0] $end
$var wire 64 I R2_DATA_UNSIGNED [63:0] $end
$var wire 1 J REG_WRITE_ENABLE $end
$var wire 1 K R_add $end
$var wire 1 L R_addw $end
$var wire 1 M R_and $end
$var wire 1 N R_div $end
$var wire 1 O R_divw $end
$var wire 1 P R_mul $end
$var wire 1 Q R_mulh $end
$var wire 1 R R_mulw $end
$var wire 1 S R_or $end
$var wire 1 T R_rem $end
$var wire 1 U R_remw $end
$var wire 1 V R_sll $end
$var wire 1 W R_sllw $end
$var wire 1 X R_slt $end
$var wire 1 Y R_sltu $end
$var wire 1 Z R_sra $end
$var wire 1 [ R_sraw $end
$var wire 1 \ R_srl $end
$var wire 1 ] R_srlw $end
$var wire 1 ^ R_sub $end
$var wire 1 _ R_subw $end
$var wire 1 ` R_xor $end
$var wire 1 a S_sb $end
$var wire 1 b S_sd $end
$var wire 1 c S_sh $end
$var wire 1 d S_sw $end
$var wire 1 e U_TYPE $end
$var wire 1 f U_auipc $end
$var wire 1 g U_jal $end
$var wire 1 h U_lui $end
$var wire 1 i WB_I_TYPE $end
$var wire 1 j WB_U_TYPE $end
$var wire 4 k regWritebackSelectionInputs [3:0] $end
$var wire 1 l isALUEqual $end
$var wire 8 m immediateSelectionInputs [7:0] $end
$var wire 4 n aluX2SelectionInputs [3:0] $end
$var wire 4 o aluX1SelectionInputs [3:0] $end
$var wire 16 p aluOpEncoderInputs [15:0] $end
$var wire 1 q WB_U_TYPE_LOAD $end
$var wire 1 r WB_U_TYPE_JUMP $end
$var wire 1 s WB_U_TYPE_AUIPC $end
$var wire 1 t WB_R_TYPE_64 $end
$var wire 1 u WB_R_TYPE $end
$var wire 1 v WB_I_TYPE_OTHER $end
$var wire 1 w WB_I_TYPE_LOAD $end
$var wire 1 x WB_I_TYPE_JUMP $end
$var wire 1 y WB_I_TYPE_64 $end
$var wire 1 z U_TYPE_LOAD $end
$var wire 1 { U_TYPE_JUMP $end
$var wire 1 | U_TYPE_AUIPC $end
$var wire 1 } S_TYPE $end
$var wire 1 ~ R_TYPE_64 $end
$var wire 1 !" R_TYPE $end
$var wire 64 "" REG_WRITE_DATA [63:0] $end
$var wire 2 #" REG_WRITEBACK_SELECTION [1:0] $end
$var wire 5 $" RD [4:0] $end
$var wire 1 ! RAM_WRITE_ENABLE $end
$var wire 64 %" RAM_READ_DATA [63:0] $end
$var wire 10 &" RAM_ADDR [9:0] $end
$var wire 64 '" R2_DATA_EXECUTE_3 [63:0] $end
$var wire 64 (" R2_DATA [63:0] $end
$var wire 5 )" R2 [4:0] $end
$var wire 64 *" R1_DATA_EXECUTE_3 [63:0] $end
$var wire 64 +" R1_DATA [63:0] $end
$var wire 5 ," R1 [4:0] $end
$var wire 7 -" OPCODE_WRITEBACK_5 [6:0] $end
$var wire 7 ." OPCODE [6:0] $end
$var wire 1 /" I_TYPE_OTHER $end
$var wire 1 0" I_TYPE_LOAD $end
$var wire 1 1" I_TYPE_JUMP $end
$var wire 1 2" I_TYPE_64 $end
$var wire 10 3" INSTRUCTION_ADDR [9:0] $end
$var wire 32 4" INSTRUCTION [31:0] $end
$var wire 64 5" IMMEDIATE_VALUE [63:0] $end
$var wire 3 6" IMMEDIATE_SELECTION [2:0] $end
$var wire 7 7" FUNCT7 [6:0] $end
$var wire 3 8" FUNCT3 [2:0] $end
$var wire 1 9" B_TYPE $end
$var wire 2 :" ALU_X2_SEL [1:0] $end
$var wire 2 ;" ALU_X1_SEL [1:0] $end
$var wire 64 <" ALU_OUT [63:0] $end
$var wire 4 =" ALU_OP [3:0] $end
$var reg 64 >" ALU_OUT_MEMORY_4 [63:0] $end
$var reg 64 ?" ALU_X1 [63:0] $end
$var reg 64 @" ALU_X2 [63:0] $end
$var reg 32 A" INSTRUCTION_DECODE_2 [31:0] $end
$var reg 32 B" INSTRUCTION_EXECUTE_3 [31:0] $end
$var reg 32 C" INSTRUCTION_MEMORY_4 [31:0] $end
$var reg 32 D" INSTRUCTION_WRITEBACK_5 [31:0] $end
$var reg 10 E" PC [9:0] $end
$var reg 10 F" PC_DECODE_2 [9:0] $end
$var reg 10 G" PC_EXECUTE_3 [9:0] $end
$var reg 10 H" PC_MEMORY_4 [9:0] $end
$var reg 64 I" RAM_READ_DATA_WRITEBACK_5 [63:0] $end
$var reg 64 J" RAM_WRITE_DATA [63:0] $end
$var reg 64 K" REG_WRITE_DATA_WRITEBACK_5 [63:0] $end
$var integer 32 L" DECODE [31:0] $end
$var integer 32 M" EXECUTE [31:0] $end
$var integer 32 N" MEMORY [31:0] $end
$var integer 32 O" OP_B_TYPE [31:0] $end
$var integer 32 P" OP_I_TYPE_64 [31:0] $end
$var integer 32 Q" OP_I_TYPE_JUMP [31:0] $end
$var integer 32 R" OP_I_TYPE_LOAD [31:0] $end
$var integer 32 S" OP_I_TYPE_OTHER [31:0] $end
$var integer 32 T" OP_R_TYPE [31:0] $end
$var integer 32 U" OP_R_TYPE_64 [31:0] $end
$var integer 32 V" OP_S_TYPE [31:0] $end
$var integer 32 W" OP_U_TYPE_AUIPC [31:0] $end
$var integer 32 X" OP_U_TYPE_JUMP [31:0] $end
$var integer 32 Y" OP_U_TYPE_LOAD [31:0] $end
$var integer 32 Z" TYPE_BRANCH [31:0] $end
$var integer 32 [" TYPE_IMMEDIATE [31:0] $end
$var integer 32 \" TYPE_LOAD [31:0] $end
$var integer 32 ]" TYPE_REGISTER [31:0] $end
$var integer 32 ^" TYPE_STORE [31:0] $end
$var integer 32 _" TYPE_UPPERIMMEDIATE [31:0] $end
$var integer 32 `" WRITEBACK [31:0] $end
$scope begin PIPELINE[0] $end
$var wire 5 a" R1 [4:0] $end
$var wire 5 b" R2 [4:0] $end
$var wire 5 c" RD [4:0] $end
$var wire 3 d" TYPE [2:0] $end
$upscope $end
$scope begin PIPELINE[1] $end
$var wire 5 e" R1 [4:0] $end
$var wire 5 f" R2 [4:0] $end
$var wire 5 g" RD [4:0] $end
$var wire 3 h" TYPE [2:0] $end
$upscope $end
$scope begin PIPELINE[2] $end
$var wire 5 i" R1 [4:0] $end
$var wire 5 j" R2 [4:0] $end
$var wire 5 k" RD [4:0] $end
$var wire 3 l" TYPE [2:0] $end
$upscope $end
$scope begin PIPELINE[3] $end
$var wire 5 m" R1 [4:0] $end
$var wire 5 n" R2 [4:0] $end
$var wire 5 o" RD [4:0] $end
$var wire 3 p" TYPE [2:0] $end
$upscope $end
$scope module alu $end
$var wire 64 q" X [63:0] $end
$var wire 64 r" X_signed [63:0] $end
$var wire 64 s" Y [63:0] $end
$var wire 64 t" Y_signed [63:0] $end
$var wire 1 l isEqual $end
$var wire 4 u" OP [3:0] $end
$var reg 64 v" result_reg [63:0] $end
$upscope $end
$scope module aluOpEncoder $end
$var wire 16 w" in [15:0] $end
$var reg 4 x" out [3:0] $end
$upscope $end
$scope module aluX1SelectionEncoder $end
$var wire 4 y" in [3:0] $end
$var reg 2 z" out [1:0] $end
$upscope $end
$scope module aluX2SelectionEncoder $end
$var wire 4 {" in [3:0] $end
$var reg 2 |" out [1:0] $end
$upscope $end
$scope module immediateExtractor $end
$var wire 32 }" INSTRUCTION [31:0] $end
$var wire 3 ~" SELECTION [2:0] $end
$var wire 64 !# Imm_UJ [63:0] $end
$var wire 64 "# Imm_U [63:0] $end
$var wire 64 ## Imm_S [63:0] $end
$var wire 64 $# Imm_I [63:0] $end
$var wire 64 %# Imm_B [63:0] $end
$var wire 4 &# IMM_4_1 [3:0] $end
$var wire 5 '# IMM_4_0 [4:0] $end
$var wire 20 (# IMM_31_12 [19:0] $end
$var wire 1 )# IMM_20 $end
$var wire 8 *# IMM_19_12 [7:0] $end
$var wire 1 +# IMM_12 $end
$var wire 1 ,# IMM_11_J $end
$var wire 1 -# IMM_11_B $end
$var wire 7 .# IMM_11_5 [6:0] $end
$var wire 12 /# IMM_11_0 [11:0] $end
$var wire 6 0# IMM_10_5 [5:0] $end
$var wire 10 1# IMM_10_1 [9:0] $end
$var reg 64 2# VALUE [63:0] $end
$upscope $end
$scope module immediateSelectionEncoder $end
$var wire 8 3# in [7:0] $end
$var reg 3 4# out [2:0] $end
$upscope $end
$scope module regFile $end
$var wire 5 5# R1 [4:0] $end
$var wire 64 6# R1_DATA [63:0] $end
$var wire 5 7# R2 [4:0] $end
$var wire 64 8# R2_DATA [63:0] $end
$var wire 5 9# RD [4:0] $end
$var wire 64 :# RD_DATA [63:0] $end
$var wire 1 J WRITE_ENABLE $end
$var integer 32 ;# i [31:0] $end
$scope begin REG_DATAS[1] $end
$var wire 64 <# R_DATA [63:0] $end
$upscope $end
$scope begin REG_DATAS[2] $end
$var wire 64 =# R_DATA [63:0] $end
$upscope $end
$scope begin REG_DATAS[3] $end
$var wire 64 ># R_DATA [63:0] $end
$upscope $end
$scope begin REG_DATAS[4] $end
$var wire 64 ?# R_DATA [63:0] $end
$upscope $end
$scope begin REG_DATAS[5] $end
$var wire 64 @# R_DATA [63:0] $end
$upscope $end
$scope begin REG_DATAS[6] $end
$var wire 64 A# R_DATA [63:0] $end
$upscope $end
$scope begin REG_DATAS[7] $end
$var wire 64 B# R_DATA [63:0] $end
$upscope $end
$scope begin REG_DATAS[8] $end
$var wire 64 C# R_DATA [63:0] $end
$upscope $end
$scope begin REG_DATAS[9] $end
$var wire 64 D# R_DATA [63:0] $end
$upscope $end
$scope begin REG_DATAS[10] $end
$var wire 64 E# R_DATA [63:0] $end
$upscope $end
$scope begin REG_DATAS[11] $end
$var wire 64 F# R_DATA [63:0] $end
$upscope $end
$scope begin REG_DATAS[12] $end
$var wire 64 G# R_DATA [63:0] $end
$upscope $end
$scope begin REG_DATAS[13] $end
$var wire 64 H# R_DATA [63:0] $end
$upscope $end
$scope begin REG_DATAS[14] $end
$var wire 64 I# R_DATA [63:0] $end
$upscope $end
$scope begin REG_DATAS[15] $end
$var wire 64 J# R_DATA [63:0] $end
$upscope $end
$scope begin REG_DATAS[16] $end
$var wire 64 K# R_DATA [63:0] $end
$upscope $end
$scope begin REG_DATAS[17] $end
$var wire 64 L# R_DATA [63:0] $end
$upscope $end
$scope begin REG_DATAS[18] $end
$var wire 64 M# R_DATA [63:0] $end
$upscope $end
$scope begin REG_DATAS[19] $end
$var wire 64 N# R_DATA [63:0] $end
$upscope $end
$scope begin REG_DATAS[20] $end
$var wire 64 O# R_DATA [63:0] $end
$upscope $end
$scope begin REG_DATAS[21] $end
$var wire 64 P# R_DATA [63:0] $end
$upscope $end
$scope begin REG_DATAS[22] $end
$var wire 64 Q# R_DATA [63:0] $end
$upscope $end
$scope begin REG_DATAS[23] $end
$var wire 64 R# R_DATA [63:0] $end
$upscope $end
$scope begin REG_DATAS[24] $end
$var wire 64 S# R_DATA [63:0] $end
$upscope $end
$scope begin REG_DATAS[25] $end
$var wire 64 T# R_DATA [63:0] $end
$upscope $end
$scope begin REG_DATAS[26] $end
$var wire 64 U# R_DATA [63:0] $end
$upscope $end
$scope begin REG_DATAS[27] $end
$var wire 64 V# R_DATA [63:0] $end
$upscope $end
$scope begin REG_DATAS[28] $end
$var wire 64 W# R_DATA [63:0] $end
$upscope $end
$scope begin REG_DATAS[29] $end
$var wire 64 X# R_DATA [63:0] $end
$upscope $end
$scope begin REG_DATAS[30] $end
$var wire 64 Y# R_DATA [63:0] $end
$upscope $end
$upscope $end
$scope module writeBackSelectionEncoder $end
$var wire 4 Z# in [3:0] $end
$var reg 2 [# out [1:0] $end
$upscope $end
$upscope $end
$scope module ram $end
$var wire 10 \# ADDRESS [9:0] $end
$var wire 1 ' CLK $end
$var wire 64 ]# DATA_IN [63:0] $end
$var wire 64 ^# DATA_OUT [63:0] $end
$var wire 1 ! WRITE_ENABLE $end
$scope begin $ivl_for_loop0 $end
$var integer 32 _# i [31:0] $end
$upscope $end
$upscope $end
$scope module rom $end
$var wire 10 `# ADDRESS [9:0] $end
$var wire 32 a# DATA [31:0] $end
$upscope $end
$scope begin $ivl_for_loop1 $end
$var integer 32 b# i [31:0] $end
$upscope $end
$upscope $end
$enddefinitions $end
#0
$dumpvars
b0 b#
b10011 a#
b0 `#
b10000000000 _#
b0 ^#
bx ]#
b0 \#
b0 [#
b0 Z#
b0 Y#
b0 X#
b0 W#
b0 V#
b0 U#
b0 T#
b0 S#
b0 R#
b0 Q#
b0 P#
b0 O#
b0 N#
b0 M#
b0 L#
b0 K#
b0 J#
b0 I#
b0 H#
b0 G#
b0 F#
b0 E#
b0 D#
b0 C#
b0 B#
b0 A#
b0 @#
b0 ?#
b0 >#
b0 =#
b0 <#
b100000 ;#
b0 :#
b0 9#
b0 8#
b0 7#
b0 6#
b0 5#
b0 4#
b0 3#
b0 2#
b0 1#
b0 0#
b0 /#
b0 .#
0-#
0,#
0+#
b0 *#
0)#
b0 (#
b0 '#
b0 &#
b0 %#
b0 $#
b0 ##
b0 "#
b0 !#
b0 ~"
b0 }"
b0 |"
b1 {"
b0 z"
b1 y"
b0 x"
b0 w"
b0 v"
b0 u"
b0 t"
b0 s"
b0 r"
b0 q"
bx p"
bx o"
bx n"
bx m"
bx l"
bx k"
bx j"
bx i"
bx h"
bx g"
bx f"
bx e"
bx d"
bx c"
bx b"
bx a"
b11 `"
b100 _"
b10 ^"
b0 ]"
b1 \"
b11 ["
b101 Z"
b110111 Y"
b1100111 X"
b10111 W"
b100011 V"
b111011 U"
b110011 T"
b10011 S"
b11 R"
b1101111 Q"
b11011 P"
b1100011 O"
b10 N"
b1 M"
b0 L"
b0 K"
bx J"
b0 I"
b0 H"
b0 G"
b0 F"
b0 E"
b0 D"
b0 C"
b0 B"
b0 A"
b0 @"
b0 ?"
b0 >"
b0 ="
b0 <"
b0 ;"
b0 :"
09"
b0 8"
b0 7"
b0 6"
b0 5"
b10011 4"
b0 3"
02"
01"
00"
0/"
b0 ."
b0 -"
b0 ,"
b0 +"
b0 *"
b0 )"
b0 ("
b0 '"
b0 &"
b0 %"
b0 $"
b0 #"
b0 ""
0!"
0~
0}
0|
0{
0z
0y
0x
0w
0v
0u
0t
0s
0r
0q
b0 p
b1 o
b1 n
b0 m
1l
b0 k
0j
0i
0h
0g
0f
0e
0d
0c
0b
0a
0`
0_
0^
0]
0\
0[
0Z
0Y
0X
0W
0V
0U
0T
0S
0R
0Q
0P
0O
0N
0M
0L
0K
0J
b0 I
b0 H
0G
xF
0E
0D
0C
0B
0A
0@
0?
0>
0=
0<
0;
0:
09
08
07
06
05
04
03
x2
x1
x0
x/
0.
0-
0,
0+
0*
0)
0(
1'
b10011 &
b0 %
b0 $
b0 #
bx "
0!
$end
#200
0'
#400
0F
01
02
0/
00
b100000000000010010011 &
b100000000000010010011 4"
b100000000000010010011 a#
b1 %
b1 3"
b1 `#
b11 d"
b0 c"
b0 b"
b0 a"
b100 E"
b0 g"
b0 f"
b0 e"
b10011 A"
b0 k"
b0 j"
b0 i"
b0 o"
b0 n"
b0 m"
b0 "
b0 J"
b0 ]#
1'
b1 b#
#600
0'
#800
b1 :"
b1 |"
b11 n
b11 {"
b1 p
b1 w"
b1 6"
b1 ~"
b1 4#
b10 m
b10 3#
13
14
1/"
b10011 ."
b100000000001100010011 &
b100000000001100010011 4"
b100000000001100010011 a#
b10 %
b10 3"
b10 `#
b10011 B"
b10011 }"
b11 h"
b100 F"
b100000000000010010011 A"
b1 c"
b1 b"
b1000 E"
1'
b10 b#
#1000
0'
#1200
b1 <"
b1 v"
b1 t"
0l
b1 @"
b1 s"
b1 5"
b1 2#
b1 $#
b100000000000000000000 "#
b1 ##
b100000000000 %#
b100000000000 !#
b10000000000011000010011 &
b10000000000011000010011 4"
b10000000000011000010011 a#
b11 %
b11 3"
b11 `#
b1 )"
b1 7#
b1 /#
b100000000 (#
b1 '#
1-#
1,#
b110 c"
b1100 E"
b1 g"
b1 f"
b1000 F"
b100000000001100010011 A"
b11 l"
b100000000000010010011 B"
b100000000000010010011 }"
b100 G"
b10011 C"
1'
b11 b#
#1400
0'
#1600
1J
b1 #"
b1 [#
b10 k
b10 Z#
1i
b110 ##
b110 %#
1v
b10011 -"
b1 $
b1 &"
b1 \#
b110 '#
0-#
b11 &#
b11000001010000000100011 &
b11000001010000000100011 4"
b11000001010000000100011 a#
b100 %
b100 3"
b100 `#
b10011 D"
b11 p"
b1 >"
b100 H"
b100000000000010010011 C"
b1 k"
b1 j"
b100000000001100010011 B"
b100000000001100010011 }"
b1000 G"
b110 g"
b1100 F"
b10000000000011000010011 A"
b1100 c"
b100 b"
b10000 E"
1'
b100 b#
#1800
0'
#2000
b100 <"
b100 v"
b100 t"
b100 @"
b100 s"
b1 <#
b100 5"
b100 2#
b100 $#
b10000000000000000000000 "#
b1100 ##
b1100 %#
b100 !#
b1010001100000011 &
b1010001100000011 4"
b1010001100000011 a#
b101 %
b101 3"
b101 `#
b100 )"
b100 7#
b100 /#
b10000000000 (#
b1100 '#
b110 &#
0,#
b10 1#
b1 ""
b1 :#
b1 $"
b1 9#
b10 d"
b0 c"
b110 b"
b1 a"
b10100 E"
b1100 g"
b100 f"
b10000 F"
b11000001010000000100011 A"
b110 k"
b10000000000011000010011 B"
b10000000000011000010011 }"
b1100 G"
b1 o"
b1 n"
b1000 H"
b100000000001100010011 C"
b1 K"
b100000000000010010011 D"
1'
b101 b#
#2200
0'
#2400
b1 <"
b1 v"
b0 t"
b0 @"
b0 s"
b1 r"
b1 ?"
b1 q"
b1 '"
b1 8#
b1 A#
b0 p
b0 w"
b1 I
b1 ("
03
b1 H
b1 +"
b0 5"
b0 2#
b11 6"
b11 ~"
b11 4#
04
b110 $#
b11000001010000000000000 "#
b0 ##
b0 %#
b1010000000000110 !#
b110 $"
b110 9#
12
b100 $
b100 &"
b100 \#
0/"
b1000 m
b1000 3#
1}
b100011 ."
b10 8"
b1 *"
b1 6#
b1 ,"
b1 5#
b110 )"
b110 7#
b110 /#
b11000001010 (#
b0 '#
b0 &#
b1010 *#
b11 1#
b100110000001100010011 &
b100110000001100010011 4"
b100110000001100010011 a#
b110 %
b110 3"
b110 `#
b100000000001100010011 D"
b110 o"
b100 >"
b1100 H"
b10000000000011000010011 C"
b1100 k"
b100 j"
b11000001010000000100011 B"
b11000001010000000100011 }"
b10000 G"
b0 g"
b110 f"
b1 e"
b10 h"
b10100 F"
b1010001100000011 A"
b1 d"
b110 c"
b0 b"
b11000 E"
1'
b110 b#
#2600
0'
#2800
b100 G#
b1 :"
b1 |"
1F
b0 I
b0 ("
13
b11 n
b11 {"
b1 6"
b1 ~"
b1 4#
b0 $#
b1010000000000000 "#
b110 ##
b110 %#
b1010000000000000 !#
1d
b11000001010000000100011 &
b11000001010000000100011 4"
b11000001010000000100011 a#
b111 %
b111 3"
b111 `#
01
10"
b10 m
b10 3#
0}
b11 ."
b0 '"
b0 8#
b0 )"
b0 7#
b0 /#
b1010 (#
b110 '#
b11 &#
b0 1#
02
b1 $
b1 &"
b1 \#
1!
b100 ""
b100 :#
b1100 $"
b1100 9#
b11 d"
b1 b"
b110 a"
b11100 E"
b110 g"
b0 f"
b1 h"
b11000 F"
b100110000001100010011 A"
b0 k"
b110 j"
b1 i"
b10 l"
b1010001100000011 B"
b1010001100000011 }"
b10100 G"
b1100 o"
b100 n"
b1 "
b1 J"
b1 ]#
b1 >"
b10000 H"
b11000001010000000100011 C"
b100 K"
b10000000000011000010011 D"
1'
b111 b#
#3000
0'
#3200
b0 <"
b0 v"
b0 r"
1l
b0 ?"
b0 q"
0J
b0 #"
b0 [#
b1 p
b1 w"
b0 k
b0 Z#
0i
b0 H
b0 +"
1;
0d
14
b0 "#
b0 ##
b0 %#
b0 !#
b1 ""
b1 :#
b0 $"
b0 9#
0v
b100011 -"
0!
00"
1/"
b10011 ."
b0 8"
b0 *"
b0 6#
b0 ,"
b0 5#
b0 (#
b0 '#
b0 &#
b0 *#
0F
b1 #
b1 %"
b1 ^#
b1 K"
b11000001010000000100011 D"
b0 o"
b110 n"
b1 m"
b10 p"
b0 "
b0 J"
b0 ]#
b10100 H"
b1010001100000011 C"
b110 k"
b0 j"
b1 l"
b10011 B"
b10011 }"
b0 g"
b0 f"
b0 e"
b11 h"
b10 d"
b0 c"
b110 b"
b1 a"
1'
b1000 b#
#3400
0'
#3600
b10 <"
b10 v"
b1 t"
b1 @"
b1 s"
b1 r"
1l
b1 ?"
b1 q"
1J
1i
b1 H
b1 +"
b1 I
b1 ("
b1 5"
b1 2#
10
b1 $#
b100110000000000000000 "#
b110 ##
b110 %#
b110000100000000000 !#
0;
b11 #"
b11 [#
b11111110110000110100101011100011 &
b11111110110000110100101011100011 4"
b11111110110000110100101011100011 a#
b1000 %
b1000 3"
b1000 `#
b1 *"
b1 6#
b110 ,"
b110 5#
b1 '"
b1 8#
b1 )"
b1 7#
b1 /#
b100110000 (#
b110 '#
b11 &#
b110000 *#
1,#
b0 #
b0 %"
b0 ^#
b0 $
b0 &"
b0 \#
b110 $"
b110 9#
b1000 k
b1000 Z#
1w
b11 -"
b100000 E"
b110 g"
b1 f"
b110 e"
b11100 F"
b11000001010000000100011 A"
b0 k"
b0 i"
b11 l"
b100110000001100010011 B"
b100110000001100010011 }"
b11000 G"
b110 o"
b0 n"
b1 p"
b0 >"
b10011 C"
b1 I"
b1010001100000011 D"
1'
b1001 b#
#3800
0'
#4000
b1 <"
b1 v"
b0 t"
0l
b0 @"
b0 s"
b0 p
b0 w"
03
b0 5"
b0 2#
b1 #"
b1 [#
b10 I
b10 ("
b11 6"
b11 ~"
b11 4#
04
b110 $#
b11000001010000000000000 "#
b0 ##
b0 %#
b1010000000000110 !#
1.
b1 ""
b1 :#
b0 $"
b0 9#
b10 k
b10 Z#
0w
1v
b10011 -"
b10 $
b10 &"
b10 \#
11
0/"
b1000 m
b1000 3#
1}
b100011 ."
b10 8"
b1 ,"
b1 5#
b110 )"
b110 7#
b110 /#
b11000001010 (#
b0 '#
b0 &#
b1010 *#
0,#
b11 1#
00
b11011100000000010000010011 &
b11011100000000010000010011 4"
b11011100000000010000010011 a#
b1001 %
b1001 3"
b1001 `#
b0 I"
b10011 D"
b0 o"
b0 m"
b11 p"
b1 "
b1 J"
b1 ]#
b10 >"
b11000 H"
b100110000001100010011 C"
b110 k"
b1 j"
b110 i"
b11000001010000000100011 B"
b11000001010000000100011 }"
b11100 G"
b0 g"
b110 f"
b1 e"
b10 h"
b100000 F"
b11111110110000110100101011100011 A"
b101 d"
b10101 c"
b1100 b"
b110 a"
b100100 E"
1'
b1010 b#
#4200
0'
#4400
b10100 <"
b10100 v"
b100000 r"
b100000 ?"
b100000 q"
b1111111111111111111111111111111111111111111111111111111111110100 t"
b1111111111111111111111111111111111111111111111111111111111110100 @"
b1111111111111111111111111111111111111111111111111111111111110100 s"
b10 *"
b10 6#
b10 A#
1G
b1 ;"
b1 z"
b11 o
b11 y"
b10 H
b10 +"
b1111111111111111111111111111111111111111111111111111111111110100 5"
b1111111111111111111111111111111111111111111111111111111111110100 2#
b100 6"
b100 ~"
b100 4#
1+
b1111111111111111111111111111111111111111111111111111111111101100 $#
b1111111111111111111111111111111111111110110000110100000000000000 "#
b1111111111111111111111111111111111111111111111111111111111110101 ##
b1111111111111111111111111111111111111111111111111111111111110100 %#
b1111111111111111111111111111111111111111111100110100011111101100 !#
1d
10
01
0}
b10000 m
b10000 3#
19"
b1100011 ."
b100 8"
b110 ,"
b110 5#
b100 '"
b100 8#
b1100 )"
b1100 7#
b1111111 7"
b111111101100 /#
b11111110110000110100 (#
b10101 '#
b1111111 .#
1-#
b1010 &#
b111111 0#
1+#
b110100 *#
b1111110110 1#
1)#
b100 I
b100 ("
b1 #
b1 %"
b1 ^#
b1 $
b1 &"
b1 \#
1!
b10 ""
b10 :#
b110 $"
b110 9#
b11 d"
b0 c"
b0 b"
b0 a"
b10101 g"
b1100 f"
b110 e"
b101 h"
b10011 A"
b0 k"
b110 j"
b1 i"
b10 l"
b11111110110000110100101011100011 B"
b11111110110000110100101011100011 }"
b100000 G"
b110 o"
b1 n"
b110 m"
b10 "
b10 J"
b10 ]#
b1 >"
b11100 H"
b11000001010000000100011 C"
b10 K"
b100110000001100010011 D"
1'
b1011 b#
#4600
0'
#4800
b0 <"
b0 v"
b0 r"
1l
b0 ?"
b0 q"
b0 t"
b0 @"
b0 s"
0G
0J
b0 ;"
b0 z"
b0 #"
b0 [#
b1 :"
b1 |"
b1 o
b1 y"
b1 p
b1 w"
b0 H
b0 +"
b0 k
b0 Z#
0i
13
b11 n
b11 {"
b0 I
b0 ("
b0 5"
b0 2#
0d
b1 6"
b1 ~"
b1 4#
14
0+
0.
b0 $#
b0 "#
b0 ##
b0 %#
b0 !#
00
b1 ""
b1 :#
b0 $"
b0 9#
0v
b100011 -"
b10100 $
b10100 &"
b10100 \#
0!
1/"
b10 m
b10 3#
09"
b10011 ."
b0 8"
b0 *"
b0 6#
b0 ,"
b0 5#
b0 '"
b0 8#
b0 )"
b0 7#
b0 7"
b0 /#
b0 (#
b0 '#
b0 .#
0-#
b0 &#
b0 0#
0+#
b0 *#
b0 1#
0)#
b1010001100000011 &
b1010001100000011 4"
b1010001100000011 a#
b101 %
b101 3"
b101 `#
b0 #
b0 %"
b0 ^#
b1 K"
b1 I"
b11000001010000000100011 D"
b0 o"
b110 n"
b1 m"
b10 p"
b100 "
b100 J"
b100 ]#
b10100 >"
b100000 H"
b11111110110000110100101011100011 C"
b10101 k"
b1100 j"
b110 i"
b101 l"
b10011 B"
b10011 }"
b0 g"
b0 f"
b0 e"
b11 h"
b10100 E"
1'
b1100 b#
#5000
0'
#5200
b100110000001100010011 &
b100110000001100010011 4"
b100110000001100010011 a#
b110 %
b110 3"
b110 `#
b0 $
b0 &"
b0 \#
b10101 $"
b10101 9#
b1100011 -"
b1 d"
b110 c"
b1 a"
b11000 E"
b10100 F"
b1010001100000011 A"
b0 k"
b0 j"
b0 i"
b11 l"
b10101 o"
b1100 n"
b110 m"
b101 p"
b0 "
b0 J"
b0 ]#
b0 >"
b10011 C"
b0 I"
b11111110110000110100101011100011 D"
1'
b1101 b#
#5400
0'
#5600
b1 <"
b1 v"
b1 r"
0l
b1 ?"
b1 q"
b1 :"
b1 |"
b11 n
b11 {"
1J
b1 #"
b1 [#
b1 6"
b1 ~"
b1 4#
b0 p
b0 w"
b10 k
b10 Z#
1i
b10 m
b10 3#
13
b1 H
b1 +"
1F
04
b1010000000000000 "#
b110 ##
b110 %#
b1010000000000000 !#
b0 $"
b0 9#
1v
b10011 -"
10"
0/"
b11 ."
b10 8"
b1 *"
b1 6#
b1 ,"
b1 5#
b1010 (#
b110 '#
b11 &#
b1010 *#
b11000001010000000100011 &
b11000001010000000100011 4"
b11000001010000000100011 a#
b111 %
b111 3"
b111 `#
b10011 D"
b0 o"
b0 n"
b0 m"
b11 p"
b1010001100000011 B"
b1010001100000011 }"
b10100 G"
b110 g"
b1 e"
b1 h"
b11000 F"
b100110000001100010011 A"
b11 d"
b1 b"
b110 a"
b11100 E"
1'
b1110 b#
#5800
0'
#6000
b0 <"
b0 v"
b0 r"
1l
b0 ?"
b0 q"
b1 p
b1 w"
b0 H
b0 +"
14
b0 "#
b0 ##
b0 %#
b0 !#
1;
00
0F
00"
1/"
b10011 ."
b0 8"
b0 *"
b0 6#
b0 ,"
b0 5#
b0 (#
b0 '#
b0 &#
b0 *#
b10 #
b10 %"
b10 ^#
b1 $
b1 &"
b1 \#
b0 ""
b0 :#
b10 d"
b0 c"
b110 b"
b1 a"
b0 g"
b0 f"
b0 e"
b11 h"
b110 k"
b1 i"
b1 l"
b10011 B"
b10011 }"
b1 >"
b10100 H"
b1010001100000011 C"
b0 K"
1'
b1111 b#
#6200
0'
